<svg xmlns="http://www.w3.org/2000/svg" viewBox="0 0 17 16">
    <path fill="#2EBB86" d="M16.844 7.355L10.238.72C9.279-.24 7.72-.24 6.762.721L.156 7.355c-.208.208-.208.546 0 .754.207.208.544.208.75 0l.422-.423v6.78c0 .847.684 1.534 1.527 1.534h2.657c.183 0 .332-.15.332-.333v-4.934c0-.92.743-1.667 1.66-1.667h1.992c.917 0 1.66.746 1.66 1.667v4.934c0 .184.149.333.332.333h2.657c.843 0 1.527-.687 1.527-1.533v-6.78l.421.422c.104.104.24.156.376.156s.272-.052.375-.156c.208-.208.208-.546 0-.754z"/>
</svg>
