<svg xmlns="http://www.w3.org/2000/svg" width="126" height="42" viewBox="0 0 126 42">
    <g fill="none" fill-rule="evenodd">
        <path fill="#2EBB86" fill-rule="nonzero" d="M89 0H42C18.804 0 0 18.804 0 42h84c23.196 0 42-18.804 42-42H89z"/>
        <text fill="#FFF" font-family="PingFangTC-Semibold, PingFang TC" font-size="15" font-weight="500">
            <tspan x="33" y="26">最新專欄</tspan>
        </text>
    </g>
</svg>
