<svg xmlns="http://www.w3.org/2000/svg" width="30" height="30" viewBox="0 0 30 30">
    <g fill="none" fill-rule="evenodd">
        <g>
            <g>
                <g>
                    <path d="M0 0H30V30H0z" transform="translate(-1290 -447) translate(397 413) rotate(90 444.5 478.5)"/>
                    <path stroke="#4A4A4A" stroke-linecap="round" stroke-linejoin="round" stroke-width="3" d="M12 8L18 14.771 12 21" transform="translate(-1290 -447) translate(397 413) rotate(90 444.5 478.5)"/>
                </g>
            </g>
        </g>
    </g>
</svg>
